Lesson 15: Model Building – Categorical Data Analysis
…
glow_workflow_int = workflow() %>%
      add_model(lasso_mod) %>% add_recipe(glow_rec_int)
  
glow_fit_int = glow_workflow_int %>% fit(glow_train)

Step 2: Fit LASSO: Identify interactions

vi_data_int = glow_fit_int %>%
    pull_workflow_fit() %>%
    vi(lambda = 0.001) %>%
    filter(Importance != 0)
vi_data_int

# A tibble: 34 × 3
   Variable                       Importance Sign 
   <chr>                               <dbl> <chr>
 1 smoke_Yes                            4.29 NEG  
 2 smoke_Yes_x_raterisk_Greater         3.89 POS  
 3 smoke_Yes_x_raterisk_Same            3.14 POS  
 4 premeno_Yes_x_smoke_Yes              3.00 NEG  
 5 momfrac_Yes_x_armassist_Yes          2.82 NEG  
 6 priorfrac_Yes_x_premeno_Yes          2.50 NEG  
 7 priorfrac_Yes                        1.82 POS  
 8 armassist_Yes_x_smoke_Yes            1.44 POS  
 9 premeno_Yes_x_raterisk_Greater       1.31 POS  
10 momfrac_Yes_x_smoke_Yes              1.17 POS  
# ℹ 24 more rows
…
